# TS 0
# BG 0
__________________________________________________________________________________________
__WwWwWwWwWwWwWwWwWwWwWwWwWwWwWwWwWwWwWwWwWwWwWwWwWwWwWwWwWwWwWwWwWwWwWwWwWwWwWwWwWwWw____
__Ww__Dd----C2------------------------Dd--____--Dd--------------------------E2----C2Ww____
__Ww--____Dd--------------------------Dd--------Dd----------------------------------Ww____
__Ww--__WwWwWwWwWwWwD2WwWwWwWwWwWwWwWwWw------WwWwD2WwWwWwWwWwWwWwWwWwWwWwWwWwWwDdDdWw____
__Ww----Ww--C2----------WwC1--C1------WwWw----Ww--------------Ww--E3WwE1--E1--Ww----Ww____
__Ww----D1--------------D1--------------D1----Ww--------------WwE1--Ww--WwWwE1Ww----Ww____
__Ww----Ww--------------Ww--------------Ww----Ww--------------Ww--E1D1--WwC3--WwC2--Ww____
__WwE1--Ww------E1------Ww----E1--------WwDdDdWw--------------WwE1--WwWwWwWwWwWw----Ww____
__Ww----Ww--------------Ww------E2------Ww----Ww--------------Ww--E1D1--E1WwC3Ww----Ww____
__Ww----Ww--------------Ww----------WwWwWw----WwWwWw----------D1----Ww--WwWw--Ww----Ww____
__Ww----WwWw------------Ww----------WwC2Ww__------Ww----------WwE3--Ww--D1--E3Ww----Ww____
__Ww----C1WwWwWwWwWwD2WwWwWwD2WwWwWwWw--Ww__--Ww--WwWwWwWwD2WwWwWwWwWwWwWwWwWwWwDdDdWw____
__Ww------Dd----------------------E1------__----__--Dd----------C1------------------Ww____
__Ww------Dd------E2------------------__------------Dd------------------------------Ww____
__Ww----WwWwWwWwWwWwWwWwWwWwD2WwWwWwWw__Ww__--Ww--WwWwWwWwWwWwWwWwD2WwWwWwWwWwD2WwWwWw____
__Ww----Ww--------------Ww----E3----Ww______------D1--E2------Ww------------Ww--WwE1Ww____
__Ww----D1------E1------Ww--E1------WwWwWw----WwWwWw----------D1------E1----Ww--D1--WwD_D_
__WwE1--Ww--------------Ww--------------Ww----Ww------------C1Ww------------Ww--WwE3Ww____
__Ww----WwWwWwWw--WwWwWwWw--------------Ww----Ww------------C2Ww------E2----Ww--WwC2Ww____
__Ww----Ww--------------Ww--------C1----D1----D1------E1------Ww------------Ww--WwWwWw____
D_Ww----Ww--P1P2o1P3P4--D1--------------WwWwD2Ww--------------D1------E1----Ww--D1E1Ww____
__Ww----Ww--------------Ww--------------WwE3E3Ww--------------Ww------------Ww--Ww--D1----
__WwDdDdWwWwD2WwWwWwWwWwWwWwWwWwWwWwD2WwWwE3E3WwWwWwWwWwWwWwWwWwWwWwWwWwWwD2WwWwWwWwWw__--
__Ww------------------------------------WwWwWwWw--E1----E3------------Ww----Ww------Ww__--
__Dd--__________------------------------Ww----D1--E1----------E2E1----WwE4--Ww------D1----
__DdWwWwWwWwWwWwWwWwWwWwWwWwWwWwWwWwWwWwWwD2WwWwWwWwWwWwWwWwWwWwWwD2WwWwWwWwWwWwWw--Ww____
__--______________D_______________________--____________D_________--__________--D1--Ww____
__--______________D_______________________------________D_________--------------WwWwWwD_D_
__--______________D___________________________--________D_________________________________
__--______________D___________________----Cc__--________D_________________________________
__--______________D___________________--______--________D_________________________________
__--______________D___________________----------________D_________________________________
__----____________D_____________________________________D_________________________________
__C3--____________D_____________________________________D_________________________________