# Blender v2.78 (sub 0) OBJ File: 'puu.blend'
# www.blender.org
mtllib puu.mtl
o Cone
v 0.000000 3.141944 -0.698228
v 0.136217 3.141944 -0.684811
v 0.267200 3.141944 -0.645078
v 0.387914 3.141944 -0.580555
v 0.493721 3.141944 -0.493721
v 0.580555 3.141944 -0.387914
v 0.645078 3.141944 -0.267200
v 0.684811 3.141944 -0.136217
v 0.698228 3.141944 -0.000000
v 0.000000 4.538399 0.000000
v 0.684811 3.141944 0.136217
v 0.645078 3.141944 0.267200
v 0.580555 3.141944 0.387914
v 0.493721 3.141944 0.493721
v 0.387914 3.141944 0.580555
v 0.267200 3.141944 0.645078
v 0.136217 3.141944 0.684811
v -0.000000 3.141944 0.698228
v -0.136218 3.141944 0.684811
v -0.267200 3.141944 0.645078
v -0.387915 3.141944 0.580555
v -0.493722 3.141944 0.493721
v -0.580555 3.141944 0.387914
v -0.645078 3.141944 0.267200
v -0.684811 3.141944 0.136217
v -0.698228 3.141944 -0.000001
v -0.684811 3.141944 -0.136218
v -0.645078 3.141944 -0.267201
v -0.580554 3.141944 -0.387915
v -0.493721 3.141944 -0.493722
v -0.387914 3.141944 -0.580556
v -0.267199 3.141944 -0.645079
v -0.136216 3.141944 -0.684811
v 0.000000 2.184537 -1.077787
v 0.210266 2.184537 -1.057078
v 0.412451 2.184537 -0.995746
v 0.598787 2.184537 -0.896147
v 0.762111 2.184537 -0.762111
v 0.896147 2.184537 -0.598786
v 0.995746 2.184537 -0.412451
v 1.057078 2.184537 -0.210266
v 1.077787 2.184537 -0.000000
v 0.000000 4.340112 0.000000
v 1.057078 2.184537 0.210266
v 0.995746 2.184537 0.412451
v 0.896147 2.184537 0.598786
v 0.762111 2.184537 0.762111
v 0.598786 2.184537 0.896147
v 0.412451 2.184537 0.995746
v 0.210266 2.184537 1.057078
v -0.000000 2.184537 1.077787
v -0.210266 2.184537 1.057078
v -0.412452 2.184537 0.995745
v -0.598787 2.184537 0.896147
v -0.762111 2.184537 0.762110
v -0.896148 2.184537 0.598786
v -0.995746 2.184537 0.412451
v -1.057078 2.184537 0.210265
v -1.077787 2.184537 -0.000001
v -1.057078 2.184537 -0.210267
v -0.995745 2.184537 -0.412452
v -0.896147 2.184537 -0.598788
v -0.762110 2.184537 -0.762112
v -0.598785 2.184537 -0.896148
v -0.412450 2.184537 -0.995746
v -0.210264 2.184537 -1.057078
v 0.000000 1.212903 -1.402576
v 0.273629 1.212903 -1.375626
v 0.536743 1.212903 -1.295811
v 0.779229 1.212903 -1.166199
v 0.991771 1.212903 -0.991771
v 1.166199 1.212903 -0.779229
v 1.295811 1.212903 -0.536743
v 1.375626 1.212903 -0.273629
v 1.402576 1.212903 -0.000000
v 0.000000 4.018055 0.000000
v 1.375626 1.212903 0.273629
v 1.295811 1.212903 0.536742
v 1.166199 1.212903 0.779229
v 0.991771 1.212903 0.991771
v 0.779229 1.212903 1.166199
v 0.536742 1.212903 1.295811
v 0.273629 1.212903 1.375626
v -0.000000 1.212903 1.402576
v -0.273630 1.212903 1.375626
v -0.536743 1.212903 1.295811
v -0.779230 1.212903 1.166199
v -0.991772 1.212903 0.991770
v -1.166200 1.212903 0.779229
v -1.295812 1.212903 0.536741
v -1.375626 1.212903 0.273628
v -1.402576 1.212903 -0.000001
v -1.375625 1.212903 -0.273630
v -1.295811 1.212903 -0.536744
v -1.166198 1.212903 -0.779231
v -0.991770 1.212903 -0.991772
v -0.779228 1.212903 -1.166200
v -0.536741 1.212903 -1.295812
v -0.273627 1.212903 -1.375626
v 0.000000 0.301949 -1.673860
v 0.326554 0.301949 -1.641698
v 0.640559 0.301949 -1.546445
v 0.929947 0.301949 -1.391764
v 1.183598 0.301949 -1.183598
v 1.391764 0.301949 -0.929947
v 1.546445 0.301949 -0.640559
v 1.641698 0.301949 -0.326554
v 1.673860 0.301949 -0.000000
v 0.000000 3.649669 0.000000
v 1.641698 0.301949 0.326554
v 1.546445 0.301949 0.640558
v 1.391764 0.301949 0.929947
v 1.183598 0.301949 1.183598
v 0.929947 0.301949 1.391764
v 0.640558 0.301949 1.546445
v 0.326554 0.301949 1.641698
v -0.000001 0.301949 1.673860
v -0.326555 0.301949 1.641697
v -0.640559 0.301949 1.546445
v -0.929948 0.301949 1.391763
v -1.183599 0.301949 1.183597
v -1.391765 0.301949 0.929946
v -1.546446 0.301949 0.640557
v -1.641698 0.301949 0.326553
v -1.673860 0.301949 -0.000002
v -1.641697 0.301949 -0.326556
v -1.546445 0.301949 -0.640560
v -1.391763 0.301949 -0.929949
v -1.183596 0.301949 -1.183599
v -0.929945 0.301949 -1.391765
v -0.640556 0.301949 -1.546446
v -0.326551 0.301949 -1.641698
v 0.000000 -0.728179 -2.010588
v 0.392246 -0.728179 -1.971955
v 0.769419 -0.728179 -1.857541
v 1.117023 -0.728179 -1.671743
v 1.421701 -0.728179 -1.421701
v 1.671743 -0.728179 -1.117023
v 1.857541 -0.728179 -0.769419
v 1.971955 -0.728179 -0.392246
v 2.010588 -0.728179 -0.000000
v 0.000000 3.292998 0.000000
v 1.971956 -0.728179 0.392246
v 1.857542 -0.728179 0.769419
v 1.671743 -0.728179 1.117023
v 1.421701 -0.728179 1.421701
v 1.117023 -0.728179 1.671743
v 0.769419 -0.728179 1.857542
v 0.392246 -0.728179 1.971956
v -0.000001 -0.728179 2.010588
v -0.392247 -0.728179 1.971955
v -0.769420 -0.728179 1.857541
v -1.117024 -0.728179 1.671743
v -1.421702 -0.728179 1.421700
v -1.671744 -0.728179 1.117022
v -1.857542 -0.728179 0.769417
v -1.971956 -0.728179 0.392245
v -2.010588 -0.728179 -0.000002
v -1.971955 -0.728179 -0.392248
v -1.857541 -0.728179 -0.769421
v -1.671742 -0.728179 -1.117025
v -1.421699 -0.728179 -1.421703
v -1.117021 -0.728179 -1.671745
v -0.769416 -0.728179 -1.857543
v -0.392243 -0.728179 -1.971956
v 0.000000 -0.728179 -2.010588
v 0.392246 -0.728179 -1.971955
v 0.769419 -0.728179 -1.857541
v 1.117023 -0.728179 -1.671743
v 1.421701 -0.728179 -1.421701
v 1.671743 -0.728179 -1.117023
v 1.857541 -0.728179 -0.769419
v 1.971955 -0.728179 -0.392246
v 2.010588 -0.728179 -0.000000
v 0.000000 3.292998 0.000000
v 1.971956 -0.728179 0.392246
v 1.857542 -0.728179 0.769419
v 1.671743 -0.728179 1.117023
v 1.421701 -0.728179 1.421701
v 1.117023 -0.728179 1.671743
v 0.769419 -0.728179 1.857542
v 0.392246 -0.728179 1.971956
v -0.000001 -0.728179 2.010588
v -0.392247 -0.728179 1.971955
v -0.769420 -0.728179 1.857541
v -1.117024 -0.728179 1.671743
v -1.421702 -0.728179 1.421700
v -1.671744 -0.728179 1.117022
v -1.857542 -0.728179 0.769417
v -1.971956 -0.728179 0.392245
v -2.010588 -0.728179 -0.000002
v -1.971955 -0.728179 -0.392248
v -1.857541 -0.728179 -0.769421
v -1.671742 -0.728179 -1.117025
v -1.421699 -0.728179 -1.421703
v -1.117021 -0.728179 -1.671745
v -0.769416 -0.728179 -1.857543
v -0.392243 -0.728179 -1.971956
v 0.000000 -1.482583 -0.565941
v 0.000000 0.403742 -0.565941
v 0.110410 -1.482583 -0.555066
v 0.110410 0.403742 -0.555066
v 0.216576 -1.482583 -0.522861
v 0.216576 0.403742 -0.522861
v 0.314420 -1.482583 -0.470563
v 0.314420 0.403742 -0.470563
v 0.400181 -1.482583 -0.400181
v 0.400181 0.403742 -0.400181
v 0.470563 -1.482583 -0.314420
v 0.470563 0.403742 -0.314420
v 0.522861 -1.482583 -0.216576
v 0.522861 0.403742 -0.216576
v 0.555066 -1.482583 -0.110410
v 0.555066 0.403742 -0.110410
v 0.565941 -1.482583 -0.000000
v 0.565941 0.403742 -0.000000
v 0.555066 -1.482583 0.110410
v 0.555066 0.403742 0.110410
v 0.522861 -1.482583 0.216576
v 0.522861 0.403742 0.216576
v 0.470563 -1.482583 0.314420
v 0.470563 0.403742 0.314420
v 0.400181 -1.482583 0.400181
v 0.400181 0.403742 0.400181
v 0.314420 -1.482583 0.470563
v 0.314420 0.403742 0.470563
v 0.216576 -1.482583 0.522861
v 0.216576 0.403742 0.522861
v 0.110409 -1.482583 0.555066
v 0.110409 0.403742 0.555066
v -0.000000 -1.482583 0.565941
v -0.000000 0.403742 0.565941
v -0.110410 -1.482583 0.555066
v -0.110410 0.403742 0.555066
v -0.216576 -1.482583 0.522861
v -0.216576 0.403742 0.522861
v -0.314420 -1.482583 0.470562
v -0.314420 0.403742 0.470562
v -0.400181 -1.482583 0.400180
v -0.400181 0.403742 0.400180
v -0.470563 -1.482583 0.314420
v -0.470563 0.403742 0.314420
v -0.522861 -1.482583 0.216576
v -0.522861 0.403742 0.216576
v -0.555067 -1.482583 0.110409
v -0.555067 0.403742 0.110409
v -0.565941 -1.482583 -0.000001
v -0.565941 0.403742 -0.000001
v -0.555066 -1.482583 -0.110410
v -0.555066 0.403742 -0.110410
v -0.522861 -1.482583 -0.216577
v -0.522861 0.403742 -0.216577
v -0.470562 -1.482583 -0.314420
v -0.470562 0.403742 -0.314420
v -0.400180 -1.482583 -0.400181
v -0.400180 0.403742 -0.400181
v -0.314419 -1.482583 -0.470563
v -0.314419 0.403742 -0.470563
v -0.216575 -1.482583 -0.522861
v -0.216575 0.403742 -0.522861
v -0.110409 -1.482583 -0.555067
v -0.110409 0.403742 -0.555067
v 0.000000 -1.482583 -0.565941
v 0.110410 -1.482583 -0.555066
v 0.216576 -1.482583 -0.522861
v 0.314420 -1.482583 -0.470563
v 0.400181 -1.482583 -0.400181
v 0.470563 -1.482583 -0.314420
v 0.522861 -1.482583 -0.216576
v 0.555066 -1.482583 -0.110410
v 0.565941 -1.482583 -0.000000
v 0.555066 -1.482583 0.110410
v 0.522861 -1.482583 0.216576
v 0.470563 -1.482583 0.314420
v 0.400181 -1.482583 0.400181
v 0.314420 -1.482583 0.470563
v 0.216576 -1.482583 0.522861
v 0.110409 -1.482583 0.555066
v -0.000000 -1.482583 0.565941
v -0.110410 -1.482583 0.555066
v -0.216576 -1.482583 0.522861
v -0.314420 -1.482583 0.470562
v -0.400181 -1.482583 0.400180
v -0.470563 -1.482583 0.314420
v -0.522861 -1.482583 0.216576
v -0.555067 -1.482583 0.110409
v -0.565941 -1.482583 -0.000001
v -0.555066 -1.482583 -0.110410
v -0.522861 -1.482583 -0.216577
v -0.470562 -1.482583 -0.314420
v -0.400180 -1.482583 -0.400181
v -0.314419 -1.482583 -0.470563
v -0.216575 -1.482583 -0.522861
v -0.110409 -1.482583 -0.555067
v 0.000000 -1.482583 -0.565941
v 0.110410 -1.482583 -0.555066
v 0.216576 -1.482583 -0.522861
v 0.314420 -1.482583 -0.470563
v 0.400181 -1.482583 -0.400181
v 0.470563 -1.482583 -0.314420
v 0.522861 -1.482583 -0.216576
v 0.555066 -1.482583 -0.110410
v 0.565941 -1.482583 -0.000000
v 0.555066 -1.482583 0.110410
v 0.522861 -1.482583 0.216576
v 0.470563 -1.482583 0.314420
v 0.400181 -1.482583 0.400181
v 0.314420 -1.482583 0.470563
v 0.216576 -1.482583 0.522861
v 0.110409 -1.482583 0.555066
v -0.000000 -1.482583 0.565941
v -0.110410 -1.482583 0.555066
v -0.216576 -1.482583 0.522861
v -0.314420 -1.482583 0.470562
v -0.400181 -1.482583 0.400180
v -0.470563 -1.482583 0.314420
v -0.522861 -1.482583 0.216576
v -0.555067 -1.482583 0.110409
v -0.565941 -1.482583 -0.000001
v -0.555066 -1.482583 -0.110410
v -0.522861 -1.482583 -0.216577
v -0.470562 -1.482583 -0.314420
v -0.400180 -1.482583 -0.400181
v -0.314419 -1.482583 -0.470563
v -0.216575 -1.482583 -0.522861
v -0.110409 -1.482583 -0.555067
v 0.000000 -1.482583 -0.565941
v 0.110410 -1.482583 -0.555066
v 0.216576 -1.482583 -0.522861
v 0.314420 -1.482583 -0.470563
v 0.400181 -1.482583 -0.400181
v 0.470563 -1.482583 -0.314420
v 0.522861 -1.482583 -0.216576
v 0.555066 -1.482583 -0.110410
v 0.565941 -1.482583 -0.000000
v 0.555066 -1.482583 0.110410
v 0.522861 -1.482583 0.216576
v 0.470563 -1.482583 0.314420
v 0.400181 -1.482583 0.400181
v 0.314420 -1.482583 0.470563
v 0.216576 -1.482583 0.522861
v 0.110409 -1.482583 0.555066
v -0.000000 -1.482583 0.565941
v -0.110410 -1.482583 0.555066
v -0.216576 -1.482583 0.522861
v -0.314420 -1.482583 0.470562
v -0.400181 -1.482583 0.400180
v -0.470563 -1.482583 0.314420
v -0.522861 -1.482583 0.216576
v -0.555067 -1.482583 0.110409
v -0.565941 -1.482583 -0.000001
v -0.555066 -1.482583 -0.110410
v -0.522861 -1.482583 -0.216577
v -0.470562 -1.482583 -0.314420
v -0.400180 -1.482583 -0.400181
v -0.314419 -1.482583 -0.470563
v -0.216575 -1.482583 -0.522861
v -0.110409 -1.482583 -0.555067
v 0.212749 0.192252 -0.460963
v 0.085374 0.315938 -0.565556
vt 0.0539 0.8674
vt 0.0741 0.9285
vt 0.0484 0.8693
vt 0.0432 0.8716
vt 0.0384 0.8741
vt 0.0342 0.8768
vt 0.0309 0.8795
vt 0.6330 0.8952
vt 0.6330 0.9598
vt 0.6281 0.8955
vt 0.6227 0.8963
vt 0.6171 0.8975
vt 0.6115 0.8991
vt 0.6061 0.9010
vt 0.6011 0.9032
vt 0.5968 0.9056
vt 0.1358 0.9158
vt 0.1756 0.8640
vt 0.1400 0.9184
vt 0.1448 0.9209
vt 0.1500 0.9232
vt 0.1555 0.9252
vt 0.1610 0.9267
vt 0.1663 0.9278
vt 0.1713 0.9284
vt 0.1756 0.9285
vt 0.9194 0.0817
vt 0.9592 0.0299
vt 0.9236 0.0843
vt 0.9284 0.0868
vt 0.9336 0.0891
vt 0.9391 0.0911
vt 0.9446 0.0926
vt 0.9499 0.0937
vt 0.9549 0.0943
vt 0.9592 0.0944
vt 0.0741 0.8640
vt 0.0697 0.8641
vt 0.0648 0.8647
vt 0.0594 0.8658
vt 0.8919 0.7530
vt 0.8897 0.7478
vt 0.8885 0.7422
vt 0.8885 0.7366
vt 0.8897 0.7310
vt 0.8919 0.7258
vt 0.8951 0.7211
vt 0.8993 0.7171
vt 0.9041 0.7139
vt 0.9095 0.7118
vt 0.9152 0.7107
vt 0.9211 0.7107
vt 0.9268 0.7118
vt 0.9322 0.7139
vt 0.9370 0.7171
vt 0.9412 0.7211
vt 0.9444 0.7258
vt 0.9467 0.7310
vt 0.9478 0.7366
vt 0.9478 0.7422
vt 0.9467 0.7478
vt 0.9444 0.7530
vt 0.9412 0.7577
vt 0.9370 0.7617
vt 0.9322 0.7649
vt 0.9268 0.7670
vt 0.9211 0.7681
vt 0.9152 0.7681
vt 0.9095 0.7670
vt 0.9041 0.7649
vt 0.8993 0.7617
vt 0.8951 0.7577
vt 0.2904 0.8271
vt 0.3300 0.7357
vt 0.2989 0.8301
vt 0.3074 0.8325
vt 0.3156 0.8342
vt 0.3232 0.8351
vt 0.3300 0.8353
vt 0.8577 0.0299
vt 0.8577 0.1296
vt 0.8500 0.0304
vt 0.8417 0.0316
vt 0.8330 0.0334
vt 0.8244 0.0359
vt 0.8161 0.0389
vt 0.8085 0.0423
vt 0.8018 0.0460
vt 0.4397 0.8157
vt 0.5012 0.7359
vt 0.4461 0.8198
vt 0.4535 0.8237
vt 0.4616 0.8272
vt 0.4701 0.8302
vt 0.4786 0.8327
vt 0.4868 0.8344
vt 0.4944 0.8353
vt 0.5012 0.8354
vt 0.6582 0.7357
vt 0.6582 0.8354
vt 0.6505 0.7362
vt 0.6422 0.7373
vt 0.6336 0.7392
vt 0.6249 0.7417
vt 0.6166 0.7447
vt 0.6090 0.7481
vt 0.6023 0.7518
vt 0.5968 0.7556
vt 0.2633 0.8114
vt 0.2685 0.8156
vt 0.2749 0.8197
vt 0.2823 0.8235
vt 0.1206 0.7727
vt 0.1172 0.7808
vt 0.1122 0.7881
vt 0.1058 0.7943
vt 0.0983 0.7991
vt 0.0900 0.8025
vt 0.0811 0.8042
vt 0.0721 0.8042
vt 0.0633 0.8025
vt 0.0549 0.7991
vt 0.0475 0.7943
vt 0.0411 0.7881
vt 0.0361 0.7808
vt 0.0326 0.7727
vt 0.0309 0.7642
vt 0.0309 0.7554
vt 0.0326 0.7469
vt 0.0361 0.7388
vt 0.0411 0.7315
vt 0.0475 0.7254
vt 0.0549 0.7205
vt 0.0633 0.7172
vt 0.0721 0.7155
vt 0.0811 0.7155
vt 0.0900 0.7172
vt 0.0983 0.7205
vt 0.1058 0.7254
vt 0.1122 0.7315
vt 0.1172 0.7388
vt 0.1206 0.7469
vt 0.1224 0.7554
vt 0.1224 0.7642
vt 0.8003 0.5280
vt 0.8408 0.6508
vt 0.7893 0.5319
vt 0.7788 0.5365
vt 0.7692 0.5416
vt 0.7608 0.5469
vt 0.7540 0.5523
vt 0.8268 0.7107
vt 0.8268 0.8403
vt 0.8168 0.7112
vt 0.8060 0.7128
vt 0.7947 0.7152
vt 0.7835 0.7184
vt 0.7727 0.7223
vt 0.7627 0.7268
vt 0.7540 0.7315
vt 0.8593 0.2755
vt 0.8593 0.4052
vt 0.8494 0.2761
vt 0.8385 0.2776
vt 0.8273 0.2800
vt 0.8160 0.2833
vt 0.8052 0.2872
vt 0.7953 0.2916
vt 0.7866 0.2964
vt 0.6532 0.1285
vt 0.7400 0.0299
vt 0.6600 0.1339
vt 0.6684 0.1392
vt 0.6780 0.1442
vt 0.6885 0.1488
vt 0.6995 0.1528
vt 0.7106 0.1559
vt 0.7213 0.1581
vt 0.7312 0.1593
vt 0.7400 0.1595
vt 0.8408 0.5212
vt 0.8320 0.5214
vt 0.8221 0.5226
vt 0.8114 0.5248
vt 0.6058 0.3389
vt 0.6058 0.3275
vt 0.6080 0.3164
vt 0.6125 0.3059
vt 0.6191 0.2964
vt 0.6273 0.2884
vt 0.6371 0.2821
vt 0.6479 0.2777
vt 0.6594 0.2755
vt 0.6712 0.2755
vt 0.6827 0.2777
vt 0.6935 0.2821
vt 0.7032 0.2884
vt 0.7115 0.2964
vt 0.7180 0.3059
vt 0.7225 0.3164
vt 0.7248 0.3275
vt 0.7248 0.3389
vt 0.7225 0.3501
vt 0.7180 0.3606
vt 0.7115 0.3700
vt 0.7032 0.3781
vt 0.6935 0.3844
vt 0.6827 0.3887
vt 0.6712 0.3909
vt 0.6594 0.3909
vt 0.6479 0.3887
vt 0.6371 0.3844
vt 0.6273 0.3781
vt 0.6191 0.3700
vt 0.6125 0.3606
vt 0.6080 0.3501
vt 0.6440 0.5293
vt 0.6923 0.6759
vt 0.6308 0.5340
vt 0.6183 0.5394
vt 0.6068 0.5455
vt 0.5968 0.5518
vt 0.4397 0.6452
vt 0.5351 0.5212
vt 0.4482 0.6511
vt 0.4586 0.6568
vt 0.4705 0.6621
vt 0.4834 0.6667
vt 0.4968 0.6706
vt 0.5102 0.6735
vt 0.5231 0.6753
vt 0.5351 0.6760
vt 0.1262 0.5008
vt 0.1262 0.6556
vt 0.1143 0.5015
vt 0.1014 0.5034
vt 0.0880 0.5063
vt 0.0745 0.5101
vt 0.0616 0.5148
vt 0.0498 0.5200
vt 0.0394 0.5258
vt 0.0309 0.5317
vt 0.3587 0.5211
vt 0.3587 0.6758
vt 0.3467 0.5218
vt 0.3338 0.5236
vt 0.3204 0.5265
vt 0.3070 0.5304
vt 0.2941 0.5350
vt 0.2822 0.5403
vt 0.2718 0.5460
vt 0.2633 0.5519
vt 0.6923 0.5212
vt 0.6818 0.5214
vt 0.6699 0.5229
vt 0.6572 0.5255
vt 0.4521 0.1189
vt 0.4494 0.1056
vt 0.4494 0.0920
vt 0.4521 0.0787
vt 0.4575 0.0662
vt 0.4653 0.0549
vt 0.4752 0.0453
vt 0.4868 0.0378
vt 0.4997 0.0326
vt 0.5135 0.0299
vt 0.5275 0.0299
vt 0.5412 0.0326
vt 0.5541 0.0378
vt 0.5658 0.0453
vt 0.5756 0.0549
vt 0.5834 0.0662
vt 0.5888 0.0787
vt 0.5915 0.0920
vt 0.5915 0.1056
vt 0.5888 0.1189
vt 0.5834 0.1314
vt 0.5756 0.1427
vt 0.5658 0.1523
vt 0.5541 0.1599
vt 0.5412 0.1650
vt 0.5275 0.1677
vt 0.5135 0.1677
vt 0.4997 0.1650
vt 0.4868 0.1599
vt 0.4752 0.1523
vt 0.4653 0.1427
vt 0.4575 0.1314
vt 0.4663 0.3876
vt 0.4928 0.4096
vt 0.7305 0.0188
vt 0.5238 0.4297
vt 0.5580 0.4473
vt 0.5941 0.4617
vt 0.6309 0.4722
vt 0.6667 0.4785
vt 0.7004 0.4804
vt 0.7305 0.4777
vt 0.0177 0.8369
vt 0.0402 0.8583
vt 0.2797 0.4711
vt 0.0681 0.8783
vt 0.1003 0.8962
vt 0.1355 0.9113
vt 0.1725 0.9229
vt 0.2099 0.9308
vt 0.2461 0.9345
vt 0.2797 0.9339
vt 0.7427 0.9051
vt 0.7706 0.9251
vt 0.9823 0.5179
vt 0.8028 0.9430
vt 0.8381 0.9580
vt 0.8751 0.9697
vt 0.9124 0.9776
vt 0.9486 0.9812
vt 0.9823 0.9806
vt 0.7073 0.5185
vt 0.6736 0.5179
vt 0.7073 0.9812
vt 0.6374 0.5216
vt 0.6001 0.5294
vt 0.5631 0.5411
vt 0.5278 0.5562
vt 0.4956 0.5741
vt 0.4678 0.5941
vt 0.4453 0.6155
vt 0.4453 0.3646
vt 0.0177 0.2466
vt 0.0253 0.2867
vt 0.0400 0.3244
vt 0.0615 0.3584
vt 0.0888 0.3873
vt 0.1209 0.4100
vt 0.1566 0.4256
vt 0.1945 0.4336
vt 0.2331 0.4336
vt 0.2710 0.4256
vt 0.3066 0.4100
vt 0.3388 0.3873
vt 0.3661 0.3584
vt 0.3875 0.3244
vt 0.4023 0.2867
vt 0.4098 0.2466
vt 0.4098 0.2058
vt 0.4023 0.1657
vt 0.3875 0.1279
vt 0.3661 0.0940
vt 0.3388 0.0651
vt 0.3066 0.0424
vt 0.2710 0.0267
vt 0.2331 0.0188
vt 0.1945 0.0188
vt 0.1566 0.0267
vt 0.1209 0.0424
vt 0.0888 0.0651
vt 0.0615 0.0940
vt 0.0400 0.1279
vt 0.0253 0.1657
vt 0.0177 0.2058
vt 0.3297 0.0396
vt 0.3877 0.2156
vt 0.3139 0.0452
vt 0.2988 0.0518
vt 0.2850 0.0590
vt 0.2730 0.0667
vt 0.2633 0.0744
vt 0.5440 0.2755
vt 0.5440 0.4614
vt 0.5297 0.2763
vt 0.5142 0.2785
vt 0.4980 0.2820
vt 0.4819 0.2866
vt 0.4664 0.2922
vt 0.4522 0.2986
vt 0.4397 0.3054
vt 0.0309 0.4042
vt 0.1455 0.2553
vt 0.0429 0.4119
vt 0.0567 0.4191
vt 0.0717 0.4257
vt 0.0875 0.4313
vt 0.1034 0.4358
vt 0.1187 0.4390
vt 0.1329 0.4407
vt 0.1455 0.4410
vt 0.2633 0.4245
vt 0.3779 0.2755
vt 0.2753 0.4321
vt 0.2891 0.4394
vt 0.3042 0.4459
vt 0.3199 0.4516
vt 0.3358 0.4561
vt 0.3511 0.4592
vt 0.3654 0.4610
vt 0.3779 0.4612
vt 0.3877 0.0299
vt 0.3751 0.0302
vt 0.3609 0.0319
vt 0.3455 0.0351
vt 0.0913 0.0331
vt 0.1078 0.0299
vt 0.1246 0.0299
vt 0.1411 0.0331
vt 0.1566 0.0393
vt 0.1706 0.0484
vt 0.1825 0.0599
vt 0.1918 0.0735
vt 0.1983 0.0885
vt 0.2015 0.1045
vt 0.2015 0.1208
vt 0.1983 0.1368
vt 0.1918 0.1519
vt 0.1825 0.1654
vt 0.1706 0.1769
vt 0.1566 0.1860
vt 0.1411 0.1922
vt 0.1246 0.1954
vt 0.1078 0.1954
vt 0.0913 0.1922
vt 0.0758 0.1860
vt 0.0618 0.1769
vt 0.0499 0.1654
vt 0.0406 0.1519
vt 0.0342 0.1368
vt 0.0309 0.1208
vt 0.0309 0.1045
vt 0.0342 0.0885
vt 0.0406 0.0735
vt 0.0499 0.0599
vt 0.0618 0.0484
vt 0.0758 0.0393
vt 0.9235 0.5212
vt 0.9235 0.5944
vt 0.9188 0.5944
vt 0.9188 0.5212
vt 0.9142 0.5947
vt 0.9142 0.5216
vt 0.9098 0.5953
vt 0.9098 0.5222
vt 0.9059 0.5962
vt 0.9059 0.5231
vt 0.9025 0.5973
vt 0.9025 0.5242
vt 0.2633 0.9683
vt 0.2633 0.8951
vt 0.2672 0.8960
vt 0.2672 0.9692
vt 0.2716 0.8966
vt 0.2716 0.9698
vt 0.2762 0.8969
vt 0.2762 0.9701
vt 0.2810 0.8969
vt 0.2810 0.9701
vt 0.2856 0.8966
vt 0.2856 0.9698
vt 0.2900 0.8960
vt 0.2900 0.9692
vt 0.2939 0.8951
vt 0.2939 0.9683
vt 0.9211 0.3487
vt 0.9211 0.2755
vt 0.9250 0.2764
vt 0.9250 0.3495
vt 0.9294 0.2770
vt 0.9294 0.3502
vt 0.9340 0.2773
vt 0.9340 0.3505
vt 0.9388 0.2773
vt 0.9388 0.3505
vt 0.9434 0.2770
vt 0.9434 0.3502
vt 0.9478 0.2764
vt 0.9478 0.3495
vt 0.9517 0.2755
vt 0.9517 0.3487
vt 0.9258 0.8309
vt 0.9258 0.9041
vt 0.9225 0.9029
vt 0.9225 0.8298
vt 0.9186 0.9021
vt 0.9186 0.8289
vt 0.9142 0.9015
vt 0.9142 0.8283
vt 0.9095 0.9011
vt 0.9095 0.8280
vt 0.9048 0.9011
vt 0.9048 0.8280
vt 0.9002 0.9015
vt 0.9002 0.8283
vt 0.8958 0.9021
vt 0.8958 0.8289
vt 0.8919 0.9029
vt 0.8919 0.8298
vt 0.8885 0.9041
vt 0.8885 0.8309
vt 0.9398 0.5242
vt 0.9398 0.5973
vt 0.9365 0.5962
vt 0.9365 0.5231
vt 0.9325 0.5953
vt 0.9325 0.5222
vt 0.9675 0.1753
vt 0.9675 0.1799
vt 0.9665 0.1844
vt 0.9647 0.1886
vt 0.9621 0.1924
vt 0.9588 0.1957
vt 0.9548 0.1982
vt 0.9505 0.2000
vt 0.9458 0.2009
vt 0.9411 0.2009
vt 0.9364 0.2000
vt 0.9321 0.1982
vt 0.9281 0.1957
vt 0.9248 0.1924
vt 0.9222 0.1886
vt 0.9204 0.1844
vt 0.9194 0.1799
vt 0.9194 0.1753
vt 0.9204 0.1708
vt 0.9222 0.1665
vt 0.9248 0.1627
vt 0.9281 0.1595
vt 0.9321 0.1569
vt 0.9364 0.1552
vt 0.9411 0.1543
vt 0.9458 0.1543
vt 0.9505 0.1552
vt 0.9548 0.1569
vt 0.9588 0.1595
vt 0.9621 0.1627
vt 0.9647 0.1665
vt 0.9665 0.1708
vt 0.9282 0.5947
vt 0.9282 0.5216
vt 0.0000 0.0000
vt 0.0000 0.0000
vt 0.0000 0.0000
vt 0.0000 0.0000
vt 0.0000 0.0000
vt 0.0000 0.0000
vt 0.0000 0.0000
vt 0.0000 0.0000
vt 0.0000 0.0000
vt 0.0000 0.0000
vt 0.0000 0.0000
vt 0.0000 0.0000
vt 0.0000 0.0000
vt 0.0000 0.0000
vt 0.0000 0.0000
vt 0.0000 0.0000
vt 0.0000 0.0000
vt 0.0000 0.0000
vt 0.0000 0.0000
vt 0.0000 0.0000
vt 0.0000 0.0000
vt 0.0000 0.0000
vt 0.0000 0.0000
vt 0.0000 0.0000
vt 0.0000 0.0000
vt 0.0000 0.0000
vt 0.0000 0.0000
vt 0.0000 0.0000
vt 0.0000 0.0000
vt 0.0000 0.0000
vt 0.0000 0.0000
vt 0.0000 0.0000
vt 0.0000 0.0000
vt 0.0000 0.0000
vt 0.0000 0.0000
vt 0.0000 0.0000
vt 0.0000 0.0000
vt 0.0000 0.0000
vt 0.0000 0.0000
vt 0.0000 0.0000
vt 0.0000 0.0000
vt 0.0000 0.0000
vt 0.0000 0.0000
vt 0.0000 0.0000
vt 0.0000 0.0000
vt 0.0000 0.0000
vt 0.0000 0.0000
vt 0.0000 0.0000
vt 0.0000 0.0000
vt 0.0000 0.0000
vt 0.0000 0.0000
vt 0.0000 0.0000
vt 0.0000 0.0000
vt 0.0000 0.0000
vt 0.0000 0.0000
vt 0.0000 0.0000
vt 0.0000 0.0000
vt 0.0000 0.0000
vt 0.0000 0.0000
vt 0.0000 0.0000
vt 0.0000 0.0000
vt 0.0000 0.0000
vt 0.0000 0.0000
vt 0.0000 0.0000
vt 0.0000 0.0000
vt 0.0000 0.0000
vt 0.0000 0.0000
vt 0.0000 0.0000
vt 0.0000 0.0000
vt 0.0000 0.0000
vt 0.0000 0.0000
vt 0.0000 0.0000
vt 0.0000 0.0000
vt 0.0000 0.0000
vt 0.0000 0.0000
vt 0.0000 0.0000
vt 0.0000 0.0000
vt 0.0000 0.0000
vt 0.0000 0.0000
vt 0.0000 0.0000
vt 0.0000 0.0000
vt 0.0000 0.0000
vt 0.0000 0.0000
vt 0.0000 0.0000
vt 0.0000 0.0000
vt 0.0000 0.0000
vt 0.0000 0.0000
vt 0.0000 0.0000
vt 0.0000 0.0000
vt 0.0000 0.0000
vt 0.0000 0.0000
vt 0.0000 0.0000
vt 0.0000 0.0000
vt 0.0000 0.0000
vt 0.0000 0.0000
vt 0.0000 0.0000
vt 0.0000 0.0000
vt 0.0000 0.0000
vt 0.9238 0.4446
vt 0.9220 0.4404
vt 0.9211 0.4359
vt 0.9211 0.4313
vt 0.9220 0.4268
vt 0.9238 0.4226
vt 0.9264 0.4188
vt 0.9298 0.4155
vt 0.9337 0.4130
vt 0.9381 0.4112
vt 0.9427 0.4103
vt 0.9475 0.4103
vt 0.9521 0.4112
vt 0.9565 0.4130
vt 0.9604 0.4155
vt 0.9638 0.4188
vt 0.9664 0.4226
vt 0.9682 0.4268
vt 0.9691 0.4313
vt 0.9691 0.4359
vt 0.9682 0.4404
vt 0.9664 0.4446
vt 0.9638 0.4485
vt 0.9604 0.4517
vt 0.9565 0.4543
vt 0.9521 0.4560
vt 0.9475 0.4569
vt 0.9427 0.4569
vt 0.9381 0.4560
vt 0.9337 0.4543
vt 0.9298 0.4517
vt 0.9264 0.4485
vt 0.0000 0.0000
vt 0.0000 0.0000
vt 0.0000 0.0000
vt 0.0000 0.0000
vt 0.0000 0.0000
vt 0.0000 0.0000
vt 0.0000 0.0000
vt 0.0000 0.0000
vt 0.0000 0.0000
vt 0.0000 0.0000
vt 0.0000 0.0000
vt 0.0000 0.0000
vt 0.0000 0.0000
vt 0.0000 0.0000
vt 0.0000 0.0000
vt 0.0000 0.0000
vt 0.0000 0.0000
vt 0.0000 0.0000
vt 0.0000 0.0000
vt 0.0000 0.0000
vt 0.0000 0.0000
vt 0.0000 0.0000
vt 0.0000 0.0000
vt 0.0000 0.0000
vt 0.0000 0.0000
vt 0.0000 0.0000
vt 0.0000 0.0000
vt 0.0000 0.0000
vt 0.0000 0.0000
vt 0.0000 0.0000
vn 0.0878 0.4455 -0.8910
vn 0.2599 0.4455 -0.8567
vn 0.4220 0.4455 -0.7896
vn 0.5680 0.4455 -0.6921
vn 0.6921 0.4455 -0.5680
vn 0.7896 0.4455 -0.4220
vn 0.8567 0.4455 -0.2599
vn 0.8910 0.4455 -0.0878
vn 0.8910 0.4455 0.0878
vn 0.8567 0.4455 0.2599
vn 0.7896 0.4455 0.4220
vn 0.6921 0.4455 0.5680
vn 0.5680 0.4455 0.6921
vn 0.4220 0.4455 0.7896
vn 0.2599 0.4455 0.8567
vn 0.0878 0.4455 0.8910
vn -0.0878 0.4455 0.8910
vn -0.2599 0.4455 0.8567
vn -0.4220 0.4455 0.7896
vn -0.5680 0.4455 0.6921
vn -0.6921 0.4455 0.5680
vn -0.7896 0.4455 0.4220
vn -0.8567 0.4455 0.2599
vn -0.8910 0.4455 0.0878
vn -0.8910 0.4455 -0.0878
vn -0.8567 0.4455 -0.2599
vn -0.7896 0.4455 -0.4220
vn -0.6921 0.4455 -0.5680
vn -0.5680 0.4455 -0.6921
vn -0.4220 0.4455 -0.7896
vn -0.2599 0.4455 -0.8567
vn -0.0878 0.4455 -0.8910
vn 0.0000 -1.0000 0.0000
vn -0.0878 -0.4455 0.8910
vn -0.2599 -0.4455 0.8567
vn -0.4220 -0.4455 0.7896
vn -0.5680 -0.4455 0.6921
vn -0.6921 -0.4455 0.5680
vn -0.7896 -0.4455 0.4220
vn -0.8567 -0.4455 0.2599
vn -0.8910 -0.4455 0.0878
vn -0.8910 -0.4455 -0.0878
vn -0.8567 -0.4455 -0.2599
vn -0.7896 -0.4455 -0.4220
vn -0.6921 -0.4455 -0.5680
vn -0.5680 -0.4455 -0.6921
vn -0.4220 -0.4455 -0.7896
vn -0.2599 -0.4455 -0.8567
vn -0.0878 -0.4455 -0.8910
vn 0.0878 -0.4455 -0.8910
vn 0.2599 -0.4455 -0.8567
vn 0.4220 -0.4455 -0.7896
vn 0.5680 -0.4455 -0.6921
vn 0.6921 -0.4455 -0.5680
vn 0.7896 -0.4455 -0.4220
vn 0.8567 -0.4455 -0.2599
vn 0.8910 -0.4455 -0.0878
vn 0.8910 -0.4455 0.0878
vn 0.8567 -0.4455 0.2599
vn 0.7896 -0.4455 0.4220
vn 0.6921 -0.4455 0.5680
vn 0.5680 -0.4455 0.6921
vn 0.4220 -0.4455 0.7896
vn 0.2599 -0.4455 0.8567
vn 0.0878 -0.4455 0.8910
vn 0.0000 1.0000 -0.0000
vn 0.0980 0.0000 -0.9952
vn 0.2903 0.0000 -0.9569
vn 0.4714 0.0000 -0.8819
vn 0.6344 0.0000 -0.7730
vn 0.7730 0.0000 -0.6344
vn 0.8819 0.0000 -0.4714
vn 0.9569 0.0000 -0.2903
vn 0.9952 0.0000 -0.0980
vn 0.9952 0.0000 0.0980
vn 0.9569 0.0000 0.2903
vn 0.8819 0.0000 0.4714
vn 0.7730 0.0000 0.6344
vn 0.6344 0.0000 0.7730
vn 0.4714 0.0000 0.8819
vn 0.2903 0.0000 0.9569
vn 0.0980 0.0000 0.9952
vn -0.0980 0.0000 0.9952
vn -0.2903 0.0000 0.9569
vn -0.4714 0.0000 0.8819
vn -0.6344 0.0000 0.7730
vn -0.7730 0.0000 0.6344
vn -0.8819 0.0000 0.4714
vn -0.9569 0.0000 0.2903
vn -0.9952 0.0000 0.0980
vn -0.9952 0.0000 -0.0980
vn -0.9569 0.0000 -0.2903
vn -0.8819 0.0000 -0.4714
vn -0.7730 0.0000 -0.6344
vn -0.6344 0.0000 -0.7730
vn -0.4714 0.0000 -0.8819
vn -0.2903 0.0000 -0.9569
vn -0.0980 0.0000 -0.9952
vn 0.0000 0.0000 1.0000
usemtl Material.001
s off
f 1/1/1 10/2/1 2/3/1
f 2/3/2 10/2/2 3/4/2
f 3/4/3 10/2/3 4/5/3
f 4/5/4 10/2/4 5/6/4
f 5/6/5 10/2/5 6/7/5
f 6/8/6 10/9/6 7/10/6
f 7/10/7 10/9/7 8/11/7
f 8/11/8 10/9/8 9/12/8
f 9/12/9 10/9/9 11/13/9
f 11/13/10 10/9/10 12/14/10
f 12/14/11 10/9/11 13/15/11
f 13/15/12 10/9/12 14/16/12
f 14/17/13 10/18/13 15/19/13
f 15/19/14 10/18/14 16/20/14
f 16/20/15 10/18/15 17/21/15
f 17/21/16 10/18/16 18/22/16
f 18/22/17 10/18/17 19/23/17
f 19/23/18 10/18/18 20/24/18
f 20/24/19 10/18/19 21/25/19
f 21/25/20 10/18/20 22/26/20
f 22/27/21 10/28/21 23/29/21
f 23/29/22 10/28/22 24/30/22
f 24/30/23 10/28/23 25/31/23
f 25/31/24 10/28/24 26/32/24
f 26/32/25 10/28/25 27/33/25
f 27/33/26 10/28/26 28/34/26
f 28/34/27 10/28/27 29/35/27
f 29/35/28 10/28/28 30/36/28
f 30/37/29 10/2/29 31/38/29
f 31/38/30 10/2/30 32/39/30
f 32/39/31 10/2/31 33/40/31
f 33/40/32 10/2/32 1/1/32
f 1/41/33 2/42/33 3/43/33 4/44/33 5/45/33 6/46/33 7/47/33 8/48/33 9/49/33 11/50/33 12/51/33 13/52/33 14/53/33 15/54/33 16/55/33 17/56/33 18/57/33 19/58/33 20/59/33 21/60/33 22/61/33 23/62/33 24/63/33 25/64/33 26/65/33 27/66/33 28/67/33 29/68/33 30/69/33 31/70/33 32/71/33 33/72/33
f 34/73/1 43/74/1 35/75/1
f 35/75/2 43/74/2 36/76/2
f 36/76/3 43/74/3 37/77/3
f 37/77/4 43/74/4 38/78/4
f 38/78/5 43/74/5 39/79/5
f 39/80/6 43/81/6 40/82/6
f 40/82/7 43/81/7 41/83/7
f 41/83/8 43/81/8 42/84/8
f 42/84/9 43/81/9 44/85/9
f 44/85/10 43/81/10 45/86/10
f 45/86/11 43/81/11 46/87/11
f 46/87/12 43/81/12 47/88/12
f 47/89/13 43/90/13 48/91/13
f 48/91/14 43/90/14 49/92/14
f 49/92/15 43/90/15 50/93/15
f 50/93/16 43/90/16 51/94/16
f 51/94/17 43/90/17 52/95/17
f 52/95/18 43/90/18 53/96/18
f 53/96/19 43/90/19 54/97/19
f 54/97/20 43/90/20 55/98/20
f 55/99/21 43/100/21 56/101/21
f 56/101/22 43/100/22 57/102/22
f 57/102/23 43/100/23 58/103/23
f 58/103/24 43/100/24 59/104/24
f 59/104/25 43/100/25 60/105/25
f 60/105/26 43/100/26 61/106/26
f 61/106/27 43/100/27 62/107/27
f 62/107/28 43/100/28 63/108/28
f 63/109/29 43/74/29 64/110/29
f 64/110/30 43/74/30 65/111/30
f 65/111/31 43/74/31 66/112/31
f 66/112/32 43/74/32 34/73/32
f 34/113/33 35/114/33 36/115/33 37/116/33 38/117/33 39/118/33 40/119/33 41/120/33 42/121/33 44/122/33 45/123/33 46/124/33 47/125/33 48/126/33 49/127/33 50/128/33 51/129/33 52/130/33 53/131/33 54/132/33 55/133/33 56/134/33 57/135/33 58/136/33 59/137/33 60/138/33 61/139/33 62/140/33 63/141/33 64/142/33 65/143/33 66/144/33
f 67/145/1 76/146/1 68/147/1
f 68/147/2 76/146/2 69/148/2
f 69/148/3 76/146/3 70/149/3
f 70/149/4 76/146/4 71/150/4
f 71/150/5 76/146/5 72/151/5
f 72/152/6 76/153/6 73/154/6
f 73/154/7 76/153/7 74/155/7
f 74/155/8 76/153/8 75/156/8
f 75/156/9 76/153/9 77/157/9
f 77/157/10 76/153/10 78/158/10
f 78/158/11 76/153/11 79/159/11
f 79/159/12 76/153/12 80/160/12
f 80/161/13 76/162/13 81/163/13
f 81/163/14 76/162/14 82/164/14
f 82/164/15 76/162/15 83/165/15
f 83/165/16 76/162/16 84/166/16
f 84/166/17 76/162/17 85/167/17
f 85/167/18 76/162/18 86/168/18
f 86/168/19 76/162/19 87/169/19
f 87/170/20 76/171/20 88/172/20
f 88/172/21 76/171/21 89/173/21
f 89/173/22 76/171/22 90/174/22
f 90/174/23 76/171/23 91/175/23
f 91/175/24 76/171/24 92/176/24
f 92/176/25 76/171/25 93/177/25
f 93/177/26 76/171/26 94/178/26
f 94/178/27 76/171/27 95/179/27
f 95/179/28 76/171/28 96/180/28
f 96/181/29 76/146/29 97/182/29
f 97/182/30 76/146/30 98/183/30
f 98/183/31 76/146/31 99/184/31
f 99/184/32 76/146/32 67/145/32
f 67/185/33 68/186/33 69/187/33 70/188/33 71/189/33 72/190/33 73/191/33 74/192/33 75/193/33 77/194/33 78/195/33 79/196/33 80/197/33 81/198/33 82/199/33 83/200/33 84/201/33 85/202/33 86/203/33 87/204/33 88/205/33 89/206/33 90/207/33 91/208/33 92/209/33 93/210/33 94/211/33 95/212/33 96/213/33 97/214/33 98/215/33 99/216/33
f 100/217/1 109/218/1 101/219/1
f 101/219/2 109/218/2 102/220/2
f 102/220/3 109/218/3 103/221/3
f 103/221/4 109/218/4 104/222/4
f 104/223/5 109/224/5 105/225/5
f 105/225/6 109/224/6 106/226/6
f 106/226/7 109/224/7 107/227/7
f 107/227/8 109/224/8 108/228/8
f 108/228/9 109/224/9 110/229/9
f 110/229/10 109/224/10 111/230/10
f 111/230/11 109/224/11 112/231/11
f 112/231/12 109/224/12 113/232/12
f 113/233/13 109/234/13 114/235/13
f 114/235/14 109/234/14 115/236/14
f 115/236/15 109/234/15 116/237/15
f 116/237/16 109/234/16 117/238/16
f 117/238/17 109/234/17 118/239/17
f 118/239/18 109/234/18 119/240/18
f 119/240/19 109/234/19 120/241/19
f 120/241/20 109/234/20 121/242/20
f 121/243/21 109/244/21 122/245/21
f 122/245/22 109/244/22 123/246/22
f 123/246/23 109/244/23 124/247/23
f 124/247/24 109/244/24 125/248/24
f 125/248/25 109/244/25 126/249/25
f 126/249/26 109/244/26 127/250/26
f 127/250/27 109/244/27 128/251/27
f 128/251/28 109/244/28 129/252/28
f 129/253/29 109/218/29 130/254/29
f 130/254/30 109/218/30 131/255/30
f 131/255/31 109/218/31 132/256/31
f 132/256/32 109/218/32 100/217/32
f 100/257/33 101/258/33 102/259/33 103/260/33 104/261/33 105/262/33 106/263/33 107/264/33 108/265/33 110/266/33 111/267/33 112/268/33 113/269/33 114/270/33 115/271/33 116/272/33 117/273/33 118/274/33 119/275/33 120/276/33 121/277/33 122/278/33 123/279/33 124/280/33 125/281/33 126/282/33 127/283/33 128/284/33 129/285/33 130/286/33 131/287/33 132/288/33
f 133/289/34 134/290/34 142/291/34
f 134/290/35 135/292/35 142/291/35
f 135/292/36 136/293/36 142/291/36
f 136/293/37 137/294/37 142/291/37
f 137/294/38 138/295/38 142/291/38
f 138/295/39 139/296/39 142/291/39
f 139/296/40 140/297/40 142/291/40
f 140/297/41 141/298/41 142/291/41
f 141/299/42 143/300/42 142/301/42
f 143/300/43 144/302/43 142/301/43
f 144/302/44 145/303/44 142/301/44
f 145/303/45 146/304/45 142/301/45
f 146/304/46 147/305/46 142/301/46
f 147/305/47 148/306/47 142/301/47
f 148/306/48 149/307/48 142/301/48
f 149/307/49 150/308/49 142/301/49
f 150/309/50 151/310/50 142/311/50
f 151/310/51 152/312/51 142/311/51
f 152/312/52 153/313/52 142/311/52
f 153/313/53 154/314/53 142/311/53
f 154/314/54 155/315/54 142/311/54
f 155/315/55 156/316/55 142/311/55
f 156/316/56 157/317/56 142/311/56
f 157/318/57 158/319/57 142/320/57
f 158/319/58 159/321/58 142/320/58
f 159/321/59 160/322/59 142/320/59
f 160/322/60 161/323/60 142/320/60
f 161/323/61 162/324/61 142/320/61
f 162/324/62 163/325/62 142/320/62
f 163/325/63 164/326/63 142/320/63
f 164/326/64 165/327/64 142/320/64
f 165/328/65 133/289/65 142/291/65
f 133/329/66 165/330/66 164/331/66 163/332/66 162/333/66 161/334/66 160/335/66 159/336/66 158/337/66 157/338/66 156/339/66 155/340/66 154/341/66 153/342/66 152/343/66 151/344/66 150/345/66 149/346/66 148/347/66 147/348/66 146/349/66 145/350/66 144/351/66 143/352/66 141/353/66 140/354/66 139/355/66 138/356/66 137/357/66 136/358/66 135/359/66 134/360/66
f 166/361/1 175/362/1 167/363/1
f 167/363/2 175/362/2 168/364/2
f 168/364/3 175/362/3 169/365/3
f 169/365/4 175/362/4 170/366/4
f 170/366/5 175/362/5 171/367/5
f 171/368/6 175/369/6 172/370/6
f 172/370/7 175/369/7 173/371/7
f 173/371/8 175/369/8 174/372/8
f 174/372/9 175/369/9 176/373/9
f 176/373/10 175/369/10 177/374/10
f 177/374/11 175/369/11 178/375/11
f 178/375/12 175/369/12 179/376/12
f 179/377/13 175/378/13 180/379/13
f 180/379/14 175/378/14 181/380/14
f 181/380/15 175/378/15 182/381/15
f 182/381/16 175/378/16 183/382/16
f 183/382/17 175/378/17 184/383/17
f 184/383/18 175/378/18 185/384/18
f 185/384/19 175/378/19 186/385/19
f 186/385/20 175/378/20 187/386/20
f 187/387/21 175/388/21 188/389/21
f 188/389/22 175/388/22 189/390/22
f 189/390/23 175/388/23 190/391/23
f 190/391/24 175/388/24 191/392/24
f 191/392/25 175/388/25 192/393/25
f 192/393/26 175/388/26 193/394/26
f 193/394/27 175/388/27 194/395/27
f 194/395/28 175/388/28 195/396/28
f 195/397/29 175/362/29 196/398/29
f 196/398/30 175/362/30 197/399/30
f 197/399/31 175/362/31 198/400/31
f 198/400/32 175/362/32 166/361/32
f 166/401/33 167/402/33 168/403/33 169/404/33 170/405/33 171/406/33 172/407/33 173/408/33 174/409/33 176/410/33 177/411/33 178/412/33 179/413/33 180/414/33 181/415/33 182/416/33 183/417/33 184/418/33 185/419/33 186/420/33 187/421/33 188/422/33 189/423/33 190/424/33 191/425/33 192/426/33 193/427/33 194/428/33 195/429/33 196/430/33 197/431/33 198/432/33
usemtl (null)
f 199/433/67 200/434/67 202/435/67 201/436/67
f 201/436/68 202/435/68 204/437/68 203/438/68
f 203/438/69 204/437/69 206/439/69 205/440/69
f 205/440/70 206/439/70 208/441/70 207/442/70
f 207/442/71 208/441/71 210/443/71 209/444/71
f 209/445/72 210/446/72 212/447/72 211/448/72
f 211/448/73 212/447/73 214/449/73 213/450/73
f 213/450/74 214/449/74 216/451/74 215/452/74
f 215/452/75 216/451/75 218/453/75 217/454/75
f 217/454/76 218/453/76 220/455/76 219/456/76
f 219/456/77 220/455/77 222/457/77 221/458/77
f 221/458/78 222/457/78 224/459/78 223/460/78
f 223/461/79 224/462/79 226/463/79 225/464/79
f 225/464/80 226/463/80 228/465/80 227/466/80
f 227/466/81 228/465/81 230/467/81 229/468/81
f 229/468/82 230/467/82 232/469/82 231/470/82
f 231/470/83 232/469/83 234/471/83 233/472/83
f 233/472/84 234/471/84 236/473/84 235/474/84
f 235/474/85 236/473/85 238/475/85 237/476/85
f 237/477/86 238/478/86 240/479/86 239/480/86
f 239/480/87 240/479/87 242/481/87 241/482/87
f 241/482/88 242/481/88 244/483/88 243/484/88
f 243/484/89 244/483/89 246/485/89 245/486/89
f 245/486/90 246/485/90 248/487/90 247/488/90
f 247/488/91 248/487/91 250/489/91 249/490/91
f 249/490/92 250/489/92 252/491/92 251/492/92
f 251/492/93 252/491/93 254/493/93 253/494/93
f 253/494/94 254/493/94 256/495/94 255/496/94
f 255/497/95 256/498/95 258/499/95 257/500/95
f 257/500/96 258/499/96 260/501/96 259/502/96
f 202/503/66 200/504/66 262/505/66 260/506/66 258/507/66 256/508/66 254/509/66 252/510/66 250/511/66 248/512/66 246/513/66 244/514/66 242/515/66 240/516/66 238/517/66 236/518/66 234/519/66 232/520/66 230/521/66 228/522/66 226/523/66 224/524/66 222/525/66 220/526/66 218/527/66 216/528/66 214/529/66 212/530/66 210/531/66 208/532/66 206/533/66 204/534/66
f 259/502/97 260/501/97 262/535/97 261/536/97
f 261/536/98 262/535/98 200/434/98 199/433/98
f 245/537/99 247/538/99 287/539/99 286/540/99
f 264/541/99 265/542/99 297/543/99 296/544/99
f 201/545/99 203/546/99 265/542/99 264/541/99
f 219/547/99 221/548/99 274/549/99 273/550/99
f 237/551/99 239/552/99 283/553/99 282/554/99
f 255/555/99 257/556/99 292/557/99 291/558/99
f 211/559/99 213/560/99 270/561/99 269/562/99
f 229/563/99 231/564/99 279/565/99 278/566/99
f 247/538/99 249/567/99 288/568/99 287/539/99
f 203/546/99 205/569/99 266/570/99 265/542/99
f 221/548/99 223/571/99 275/572/99 274/549/99
f 239/552/99 241/573/99 284/574/99 283/553/99
f 257/556/99 259/575/99 293/576/99 292/557/99
f 213/560/99 215/577/99 271/578/99 270/561/99
f 231/564/99 233/579/99 280/580/99 279/565/99
f 249/567/99 251/581/99 289/582/99 288/568/99
f 205/569/99 207/583/99 267/584/99 266/570/99
f 223/571/99 225/585/99 276/586/99 275/572/99
f 241/573/99 243/587/99 285/588/99 284/574/99
f 259/575/99 261/589/99 294/590/99 293/576/99
f 215/577/99 217/591/99 272/592/99 271/578/99
f 233/579/99 235/593/99 281/594/99 280/580/99
f 251/581/99 253/595/99 290/596/99 289/582/99
f 207/583/99 209/597/99 268/598/99 267/584/99
f 225/585/99 227/599/99 277/600/99 276/586/99
f 243/587/99 245/537/99 286/540/99 285/588/99
f 199/601/99 201/545/99 264/541/99 263/602/99
f 261/589/99 199/601/99 263/602/99 294/590/99
f 217/591/99 219/547/99 273/550/99 272/592/99
f 235/593/99 237/551/99 282/554/99 281/594/99
f 253/595/99 255/555/99 291/558/99 290/596/99
f 209/597/99 211/559/99 269/562/99 268/598/99
f 227/599/99 229/563/99 278/566/99 277/600/99
f 299/603/99 300/604/99 332/605/99 331/606/99
f 291/558/99 292/557/99 324/607/99 323/608/99
f 278/566/99 279/565/99 311/609/99 310/610/99
f 265/542/99 266/570/99 298/611/99 297/543/99
f 292/557/99 293/576/99 325/612/99 324/607/99
f 279/565/99 280/580/99 312/613/99 311/609/99
f 266/570/99 267/584/99 299/603/99 298/611/99
f 293/576/99 294/590/99 326/614/99 325/612/99
f 280/580/99 281/594/99 313/615/99 312/613/99
f 267/584/99 268/598/99 300/604/99 299/603/99
f 294/590/99 263/602/99 295/616/99 326/614/99
f 281/594/99 282/554/99 314/617/99 313/615/99
f 268/598/99 269/562/99 301/618/99 300/604/99
f 282/554/99 283/553/99 315/619/99 314/617/99
f 269/562/99 270/561/99 302/620/99 301/618/99
f 283/553/99 284/574/99 316/621/99 315/619/99
f 270/561/99 271/578/99 303/622/99 302/620/99
f 284/574/99 285/588/99 317/623/99 316/621/99
f 271/578/99 272/592/99 304/624/99 303/622/99
f 285/588/99 286/540/99 318/625/99 317/623/99
f 272/592/99 273/550/99 305/626/99 304/624/99
f 286/540/99 287/539/99 319/627/99 318/625/99
f 273/550/99 274/549/99 306/628/99 305/626/99
f 287/539/99 288/568/99 320/629/99 319/627/99
f 274/549/99 275/572/99 307/630/99 306/628/99
f 288/568/99 289/582/99 321/631/99 320/629/99
f 275/572/99 276/586/99 308/632/99 307/630/99
f 289/582/99 290/596/99 322/633/99 321/631/99
f 276/586/99 277/600/99 309/634/99 308/632/99
f 263/602/99 264/541/99 296/544/99 295/616/99
f 290/596/99 291/558/99 323/608/99 322/633/99
f 277/600/99 278/566/99 310/610/99 309/634/99
f 327/635/33 328/636/33 329/637/33 330/638/33 331/639/33 332/640/33 333/641/33 334/642/33 335/643/33 336/644/33 337/645/33 338/646/33 339/647/33 340/648/33 341/649/33 342/650/33 343/651/33 344/652/33 345/653/33 346/654/33 347/655/33 348/656/33 349/657/33 350/658/33 351/659/33 352/660/33 353/661/33 354/662/33 355/663/33 356/664/33 357/665/33 358/666/33
f 326/614/99 295/616/99 327/667/99 358/668/99
f 313/615/99 314/617/99 346/669/99 345/670/99
f 300/604/99 301/618/99 333/671/99 332/605/99
f 314/617/99 315/619/99 347/672/99 346/669/99
f 301/618/99 302/620/99 334/673/99 333/671/99
f 315/619/99 316/621/99 348/674/99 347/672/99
f 302/620/99 303/622/99 335/675/99 334/673/99
f 316/621/99 317/623/99 349/676/99 348/674/99
f 303/622/99 304/624/99 336/677/99 335/675/99
f 317/623/99 318/625/99 350/678/99 349/676/99
f 304/624/99 305/626/99 337/679/99 336/677/99
f 318/625/99 319/627/99 351/680/99 350/678/99
f 305/626/99 306/628/99 338/681/99 337/679/99
f 319/627/99 320/629/99 352/682/99 351/680/99
f 306/628/99 307/630/99 339/683/99 338/681/99
f 320/629/99 321/631/99 353/684/99 352/682/99
f 307/630/99 308/632/99 340/685/99 339/683/99
f 321/631/99 322/633/99 354/686/99 353/684/99
f 308/632/99 309/634/99 341/687/99 340/685/99
f 295/616/99 296/544/99 328/688/99 327/667/99
f 322/633/99 323/608/99 355/689/99 354/686/99
f 309/634/99 310/610/99 342/690/99 341/687/99
f 296/544/99 297/543/99 329/691/99 328/688/99
f 323/608/99 324/607/99 356/692/99 355/689/99
f 310/610/99 311/609/99 343/693/99 342/690/99
f 297/543/99 298/611/99 330/694/99 329/691/99
f 324/607/99 325/612/99 357/695/99 356/692/99
f 311/609/99 312/613/99 344/696/99 343/693/99
f 298/611/99 299/603/99 331/606/99 330/694/99
f 325/612/99 326/614/99 358/668/99 357/695/99
f 312/613/99 313/615/99 345/670/99 344/696/99
l 200 359
l 359 360
